{
  "project_info": {
    "project_number": "1048855203370",
    "project_id": "cx-ecommerce",
    "storage_bucket": "cx-ecommerce.appspot.com"
  },
  "client": [
    {
      "client_info": {
        "mobilesdk_app_id": "1:1048855203370:android:0980d77602aceaf98cfd53",
        "android_client_info": {
          "package_name": "com.connexist.pekik_app"
        }
      },
      "oauth_client": [
        {
          "client_id": "1048855203370-l1c0919mqulm8obsn7dn1b7h32pt55hv.apps.googleusercontent.com",
          "client_type": 3
        }
      ],
      "api_key": [
        {
          "current_key": "AIzaSyCvqiTaPWsitXwszOeD9fJQ0VSXvIOOekE"
        }
      ],
      "services": {
        "appinvite_service": {
          "other_platform_oauth_client": [
            {
              "client_id": "1048855203370-l1c0919mqulm8obsn7dn1b7h32pt55hv.apps.googleusercontent.com",
              "client_type": 3
            }
          ]
        }
      }
    }
  ],
  "configuration_version": "1"
}